quartus_prj/simulation/qsim/serializer.msim.vcd
$comment
	File created using the following command:
		vcd file serializer.msim.vcd -direction
$end
$date
	Fri Dec 29 22:23:16 2023
$end
$version
	ModelSim Version 10.5b
$end
$timescale
	1ps
$end

$scope module serializer_vlg_vec_tst $end
$var reg 1 ! clk_i $end
$var reg 16 " data_i [15:0] $end
$var reg 4 # data_mod_i [3:0] $end
$var reg 1 $ data_val_i $end
$var reg 1 % srst_i $end
$var wire 1 & busy_o $end
$var wire 1 ' ser_data_o $end
$var wire 1 ( ser_data_val_o $end

$scope module i1 $end
$var wire 1 ) gnd $end
$var wire 1 * vcc $end
$var wire 1 + unknown $end
$var tri1 1 , devclrn $end
$var tri1 1 - devpor $end
$var tri1 1 . devoe $end
$var wire 1 / ~QUARTUS_CREATED_GND~I_combout $end
$var wire 1 0 clk_i~input_o $end
$var wire 1 1 clk_i~inputCLKENA0_outclk $end
$var wire 1 2 data_mod_i[3]~input_o $end
$var wire 1 3 data_mod_i[1]~input_o $end
$var wire 1 4 data_mod_i[0]~input_o $end
$var wire 1 5 data_val_i~input_o $end
$var wire 1 6 data_mod_i[2]~input_o $end
$var wire 1 7 next_state~0_combout $end
$var wire 1 8 srst_i~input_o $end
$var wire 1 9 counter[2]~2_combout $end
$var wire 1 : counter[3]~1_combout $end
$var wire 1 ; Add0~0_combout $end
$var wire 1 < counter~0_combout $end
$var wire 1 = Add0~2_combout $end
$var wire 1 > Add0~1_combout $end
$var wire 1 ? state~4_combout $end
$var wire 1 @ state~5_combout $end
$var wire 1 A state.WORK_S~q $end
$var wire 1 B counter[0]~4_combout $end
$var wire 1 C counter[1]~3_combout $end
$var wire 1 D data_i[11]~input_o $end
$var wire 1 E data_i[3]~input_o $end
$var wire 1 F data_i[15]~input_o $end
$var wire 1 G data_i[7]~input_o $end
$var wire 1 H data_buf[7]~feeder_combout $end
$var wire 1 I Mux0~3_combout $end
$var wire 1 J data_i[13]~input_o $end
$var wire 1 K data_buf[13]~feeder_combout $end
$var wire 1 L data_i[5]~input_o $end
$var wire 1 M data_buf[5]~feeder_combout $end
$var wire 1 N data_i[9]~input_o $end
$var wire 1 O data_buf[9]~feeder_combout $end
$var wire 1 P data_i[1]~input_o $end
$var wire 1 Q Mux0~2_combout $end
$var wire 1 R data_i[6]~input_o $end
$var wire 1 S data_i[10]~input_o $end
$var wire 1 T data_i[2]~input_o $end
$var wire 1 U data_i[14]~input_o $end
$var wire 1 V Mux0~1_combout $end
$var wire 1 W data_i[8]~input_o $end
$var wire 1 X data_buf[8]~feeder_combout $end
$var wire 1 Y data_i[12]~input_o $end
$var wire 1 Z data_i[4]~input_o $end
$var wire 1 [ data_i[0]~input_o $end
$var wire 1 \ Mux0~0_combout $end
$var wire 1 ] Mux0~4_combout $end
$var wire 1 ^ final_index [3] $end
$var wire 1 _ final_index [2] $end
$var wire 1 ` final_index [1] $end
$var wire 1 a final_index [0] $end
$var wire 1 b counter [3] $end
$var wire 1 c counter [2] $end
$var wire 1 d counter [1] $end
$var wire 1 e counter [0] $end
$var wire 1 f data_buf [15] $end
$var wire 1 g data_buf [14] $end
$var wire 1 h data_buf [13] $end
$var wire 1 i data_buf [12] $end
$var wire 1 j data_buf [11] $end
$var wire 1 k data_buf [10] $end
$var wire 1 l data_buf [9] $end
$var wire 1 m data_buf [8] $end
$var wire 1 n data_buf [7] $end
$var wire 1 o data_buf [6] $end
$var wire 1 p data_buf [5] $end
$var wire 1 q data_buf [4] $end
$var wire 1 r data_buf [3] $end
$var wire 1 s data_buf [2] $end
$var wire 1 t data_buf [1] $end
$var wire 1 u data_buf [0] $end
$upscope $end
$upscope $end
$enddefinitions $end
#0
$dumpvars
0!
b1100110001111001 "
b0 #
0$
0%
0&
0'
0(
0)
1*
x+
1,
1-
1.
0/
00
01
02
03
04
05
06
07
08
09
0:
0;
0<
0=
0>
1?
0@
0A
0B
0C
1D
1E
1F
0G
0H
0I
0J
0K
1L
1M
0N
0O
0P
0Q
1R
1S
0T
1U
0V
0W
0X
0Y
1Z
1[
0\
0]
0a
0`
0_
0^
0e
0d
0c
0b
0u
0t
0s
0r
0q
0p
0o
0n
0m
0l
0k
0j
0i
0h
0g
0f
$end
#10000
1!
10
11
#20000
0!
00
01
#30000
b100110001111001 "
b110001111001 "
b10110001111001 "
b10100001111001 "
b10101001111001 "
b10101101111001 "
b10101111111001 "
b10101110111001 "
b10101110011001 "
b10101110011011 "
1!
1P
0L
0R
1G
1W
1N
0S
1J
0U
0F
10
11
1K
1O
1X
1H
0M
#40000
0!
00
01
#50000
1!
10
11
#60000
b10001110011011 "
b10001110001011 "
b10001110001010 "
b10001010001010 "
b10001011001010 "
b10001011101010 "
b10001011101000 "
0!
0[
0P
0Z
1L
1R
0W
0D
00
01
0X
1M
#70000
1!
10
11
#80000
0!
00
01
#90000
b10001011100000 "
b1010001011100000 "
b1010011011100000 "
b1010010011100000 "
b1010010001100000 "
b1010110001100000 "
b1010110001110000 "
b1010110101110000 "
b1010110100110000 "
b1010110100010000 "
1!
0E
1Z
0L
0R
0G
1W
0N
1S
1D
1F
10
11
0O
1X
0H
0M
#100000
0!
00
01
#110000
1!
10
11
#120000
b1010110100010100 "
b1010110100011100 "
b1010100100011100 "
b1010101100011100 "
b1010001100011100 "
b1010001000011100 "
b1010001000111100 "
0!
1T
1E
1L
0W
1N
0S
0D
00
01
1O
0X
1M
#130000
1!
10
11
#140000
0!
00
01
#150000
b1011001000111100 "
b1011001000111101 "
b1011001000111111 "
b11001000111111 "
b11001010111111 "
b11001010111011 "
b11001010110011 "
b11000010110011 "
b11100010110011 "
b11100110110011 "
b11100110010011 "
1!
1[
1P
0T
0E
0L
1G
1W
0N
1D
1Y
0F
10
11
0O
1X
1H
0M
#160000
0!
00
01
#170000
1!
10
11
#180000
b1100110010011 "
b1100110000011 "
b1110110000011 "
b1110110000010 "
b1111110000010 "
b1011110000010 "
b1011010000010 "
0!
0[
0Z
0W
1N
1S
0D
0J
00
01
0K
1O
0X
#190000
1!
10
11
#200000
0!
00
01
#210000
b11010000010 "
b1000011010000010 "
b1000011010001010 "
b1000011010101010 "
b1010011010101010 "
b1010001010101010 "
b1010101010101010 "
1!
1E
1L
0S
1D
0Y
1J
1F
10
11
1K
1M
#220000
1$
0!
15
00
01
1<
17
1C
1B
1:
19
1@
#230000
1!
10
11
1t
1l
1p
1h
1n
1f
1r
1j
1d
1e
1b
1c
1A
1(
1&
1Q
1I
0?
0<
0B
1]
1'
#240000
b1010101010101000 "
b1010101010101100 "
b1010101010101101 "
b1010100010101101 "
b1010100110101101 "
b1011100110101101 "
b1011110110101101 "
0$
0!
1[
0P
1T
1W
0N
1S
1Y
05
00
01
07
0O
1X
#250000
1!
10
11
0e
0]
0C
1B
0'
#260000
0!
00
01
#270000
b1111110110101101 "
b1111110100101101 "
b1111110100100101 "
b1111110100000101 "
b1101110100000101 "
b1101010100000101 "
b1101010100000111 "
b1101010100000011 "
b1101010100000010 "
b1101000100000010 "
1!
0[
1P
0T
0E
0L
0G
0S
0D
0J
1U
10
11
0K
0H
0M
0d
1e
1]
0B
1'
#280000
0!
00
01
#290000
1!
10
11
0e
0]
1C
1B
09
0'
#300000
b1101000101000010 "
b1101000101010010 "
b1101001101010010 "
b1101001001010010 "
b1001001001010010 "
b1001001001011010 "
b1001001001111010 "
b1001101001111010 "
b1001101001111000 "
0!
0P
1E
1Z
1L
1R
0W
1N
1D
0U
00
01
1O
0X
1M
#310000
1!
10
11
1d
1e
0c
1]
0B
1'
#320000
0!
00
01
#330000
b1011101001111000 "
b1011101101111000 "
b1011101101110000 "
b1011101101010000 "
b1011101101010010 "
1!
1P
0E
0L
1W
1J
10
11
1K
1X
0M
0e
0]
0C
1B
0'
#340000
0!
00
01
#350000
1!
10
11
0d
1e
1]
0B
1'
#360000
b11101101010010 "
b10101101010010 "
b10111101010010 "
b10111100010010 "
b10111100000010 "
b110111100000010 "
b100111100000010 "
b100111000000010 "
b100111000000000 "
0!
0P
0Z
0R
0W
1S
0Y
0J
1U
0F
00
01
0K
0X
#370000
1!
10
11
0e
1?
0]
1C
1B
0:
19
0'
#380000
0!
00
01
#390000
b100111000000100 "
b100111000000101 "
b100110000000101 "
b100010000000101 "
b100010000100101 "
b100000000100101 "
b100000001100101 "
b100000001100111 "
1!
1[
1P
1T
1L
1R
0N
0S
0D
10
11
0O
1M
1d
1e
0b
1c
0?
0@
1]
0B
1'
1@
#400000
0!
00
01
#410000
1!
10
11
0e
0]
0C
1B
0'
#420000
b100000011100111 "
b100000011101111 "
b101000011101111 "
b101000011111111 "
b1000011111111 "
b1000111111111 "
b1000111111011 "
b1100111111011 "
b1110111111011 "
0!
0T
1E
1Z
1G
1W
1S
1D
1Y
0U
00
01
1X
1H
#430000
1!
10
11
0d
1e
1]
0B
1'
#440000
0!
00
01
#450000
b11110111111011 "
b11111111111011 "
b11111111110011 "
b11111111100011 "
b111111111100011 "
b111111111100111 "
b111011111100111 "
1!
1T
0E
0Z
1N
0D
1J
1U
10
11
1K
1O
0e
0]
1C
1B
09
0'
#460000
0!
00
01
#470000
1!
10
11
1d
1e
0c
1]
0B
1'
#480000
b111011111100110 "
b111011110100110 "
b111011100100110 "
b101011100100110 "
b101011100101110 "
b1011100101110 "
0!
0[
1E
0R
0G
0J
0U
00
01
0K
0H
#490000
1!
10
11
0e
0]
0C
1B
0'
#500000
0!
00
01
#510000
b1011100101100 "
b1011100111100 "
b1011100111000 "
b1011101111000 "
b1011111111000 "
1!
0P
0T
1Z
1R
1G
10
11
1H
0d
1e
1]
0B
1'
#520000
0!
00
01
#530000
1!
10
11
0e
1?
0]
1C
1B
1:
19
0'
0@
#540000
b11111111000 "
b11011111000 "
b1011111000 "
b11111000 "
b100011111000 "
b100011111001 "
b10100011111001 "
b10100011110001 "
b110100011110001 "
b110100011100001 "
b110100011100101 "
0!
1[
1T
0E
0Z
0W
0N
0S
1D
0Y
1J
1U
00
01
1K
0O
0X
#550000
1!
10
11
1d
1e
1b
1c
0A
0(
0&
0?
#560000
0!
00
01
#570000
b1110100011100101 "
b1110110011100101 "
b1110010011100101 "
b1110010011101101 "
1!
1E
1S
0D
1F
10
11
#580000
0!
00
01
#590000
1!
10
11
#600000
b1110010011101111 "
b1100010011101111 "
b1000010011101111 "
b1000010011111111 "
b1000000011111111 "
b1000100011111111 "
0!
1P
1Z
0S
1D
0J
0U
00
01
0K
#610000
1!
10
11
#620000
0!
00
01
#630000
b1000100011011111 "
b1000100010011111 "
b1000100000011111 "
b1000101000011111 "
b1000101000011110 "
b1000101000010110 "
b1100101000010110 "
b1100101000000110 "
b1100111000000110 "
b1100011000000110 "
1!
0[
0E
0Z
0L
0R
0G
1N
1S
0D
1U
10
11
1O
0H
0M
#640000
0!
00
01
#650000
1!
10
11
#660000
b1101011000000110 "
b1101011100000110 "
b101011100000110 "
b111011100000110 "
b111011100100110 "
b111011101100110 "
b111011111100110 "
b111011111100111 "
b111011111101111 "
b111011111111111 "
b111001111111111 "
0!
1[
1E
1Z
1L
1R
1G
1W
0S
1Y
1J
0F
00
01
1K
1X
1H
1M
#670000
1!
10
11
#680000
b111001111111011 "
b111001111111001 "
b111000111111001 "
b11000111111001 "
b10000111111001 "
b10000011111001 "
b11111001 "
b11011001 "
b10011001 "
b11001 "
b11000 "
b10000 "
b0 "
0!
0[
0P
0T
0E
0Z
0L
0R
0G
0W
0N
0Y
0J
0U
00
01
0K
0O
0X
0H
0M
